{
  "Author":"DearPyGui",
  "BasedOn":"https://github.com/hoffstadt/DearPyGui_Ext/blob/master/dearpygui_ext/themes.py",
  "mvThemeCol_Text": [255, 255, 255, 255],
  "mvThemeCol_TextDisabled": [128, 128, 128, 255],
  "mvThemeCol_WindowBg": [15, 15, 15, 242],
  "mvThemeCol_ChildBg": [0, 0, 0, 0],
  "mvThemeCol_PopupBg": [20, 20, 20, 242],
  "mvThemeCol_Border": [0, 110, 128, 128],
  "mvThemeCol_BorderShadow": [0, 0, 0, 0],
  "mvThemeCol_FrameBg": [41, 74, 122, 138],
  "mvThemeCol_FrameBgHovered": [66, 150, 250, 102],
  "mvThemeCol_FrameBgActive": [66, 150, 250, 171],
  "mvThemeCol_TitleBg": [10, 10, 10, 255],
  "mvThemeCol_TitleBgActive": [41, 74, 122, 255],
  "mvThemeCol_TitleBgCollapsed": [0, 0, 0, 130],
  "mvThemeCol_MenuBarBg": [36, 36, 36, 255],
  "mvThemeCol_ScrollbarBg": [5, 5, 5, 135],
  "mvThemeCol_ScrollbarGrab": [79, 79, 79, 255],
  "mvThemeCol_ScrollbarGrabHovered": [105, 105, 105, 255],
  "mvThemeCol_ScrollbarGrabActive": [130, 130, 130, 255],
  "mvThemeCol_CheckMark": [66, 150, 250, 255],
  "mvThemeCol_SliderGrab": [61, 133, 224, 255],
  "mvThemeCol_SliderGrabActive": [66, 150, 250, 255],
  "mvThemeCol_Button": [66, 150, 250, 102],
  "mvThemeCol_ButtonHovered": [66, 150, 250, 255],
  "mvThemeCol_ButtonActive": [15, 135, 250, 255],
  "mvThemeCol_Header": [66, 150, 250, 79],
  "mvThemeCol_HeaderHovered": [66, 150, 250, 204],
  "mvThemeCol_HeaderActive": [66, 150, 250, 255],
  "mvThemeCol_Separator": [110, 110, 128, 128],
  "mvThemeCol_SeparatorHovered": [26, 102, 191, 199],
  "mvThemeCol_SeparatorActive": [26, 102, 191, 255],
  "mvThemeCol_ResizeGrip": [66, 150, 250, 51],
  "mvThemeCol_ResizeGripHovered": [66, 150, 250, 171],
  "mvThemeCol_ResizeGripActive": [66, 150, 250, 242],
  "mvThemeCol_Tab": [46, 89, 148, 220],
  "mvThemeCol_TabHovered": [66, 150, 250, 204],
  "mvThemeCol_TabActive": [51, 105, 174, 255],
  "mvThemeCol_TabUnfocused": [18, 26, 38, 247],
  "mvThemeCol_TabUnfocusedActive": [36, 67, 108, 255],
  "mvThemeCol_DockingPreview": [66, 150, 250, 179],
  "mvThemeCol_DockingEmptyBg": [51, 51, 51, 255],
  "mvThemeCol_PlotLines": [156, 156, 156, 255],
  "mvThemeCol_PlotLinesHovered": [255, 110, 89, 255],
  "mvThemeCol_PlotHistogram": [229, 178, 0, 255],
  "mvThemeCol_PlotHistogramHovered": [255, 153, 0, 255],
  "mvThemeCol_TableHeaderBg": [48, 48, 51, 255],
  "mvThemeCol_TableBorderStrong": [79, 79, 89, 255],
  "mvThemeCol_TableBorderLight": [59, 59, 64, 255],
  "mvThemeCol_TableRowBg": [0, 0, 0, 0],
  "mvThemeCol_TableRowBgAlt": [255, 255, 255, 15],
  "mvThemeCol_TextSelectedBg": [66, 150, 250, 89],
  "mvThemeCol_DragDropTarget": [255, 255, 0, 230],
  "mvThemeCol_NavHighlight": [66, 150, 250, 255],
  "mvThemeCol_NavWindowingHighlight": [255, 255, 255, 179],
  "mvThemeCol_NavWindowingDimBg": [204, 204, 204, 51],
  "mvThemeCol_ModalWindowDimBg": [204, 204, 204, 89],
  "mvPlotCol_FrameBg": [255, 255, 255, 18],
  "mvPlotCol_PlotBg": [0, 0, 0, 128],
  "mvPlotCol_PlotBorder": [110, 110, 128, 128],
  "mvPlotCol_LegendBg": [20, 20, 20, 242],
  "mvPlotCol_LegendBorder": [110, 110, 128, 128],
  "mvPlotCol_LegendText": [255, 255, 255, 255],
  "mvPlotCol_TitleText": [255, 255, 255, 255],
  "mvPlotCol_InlayText": [255, 255, 255, 255],
  "mvPlotCol_XAxis": [255, 255, 255, 255],
  "mvPlotCol_XAxisGrid": [255, 255, 255, 64],
  "mvPlotCol_YAxis": [255, 255, 255, 255],
  "mvPlotCol_YAxisGrid": [255, 255, 255, 64],
  "mvPlotCol_YAxis2": [255, 255, 255, 255],
  "mvPlotCol_YAxisGrid2": [255, 255, 255, 64],
  "mvPlotCol_YAxis3": [255, 255, 255, 255],
  "mvPlotCol_YAxisGrid3": [255, 255, 255, 64],
  "mvPlotCol_Selection": [255, 153, 0, 255],
  "mvPlotCol_Query": [0, 255, 112, 255],
  "mvPlotCol_Crosshairs": [255, 255, 255, 128],
  "mvNodeCol_NodeBackground": [50, 50, 50, 255],
  "mvNodeCol_NodeBackgroundHovered": [75, 75, 75, 255],
  "mvNodeCol_NodeBackgroundSelected": [75, 75, 75, 255],
  "mvNodeCol_NodeOutline": [100, 100, 100, 255],
  "mvNodeCol_TitleBar": [41, 74, 122, 255],
  "mvNodeCol_TitleBarHovered": [66, 150, 250, 255],
  "mvNodeCol_TitleBarSelected": [66, 150, 250, 255],
  "mvNodeCol_Link": [61, 133, 224, 200],
  "mvNodeCol_LinkHovered": [66, 150, 250, 255],
  "mvNodeCol_LinkSelected": [66, 150, 250, 255],
  "mvNodeCol_Pin": [53, 150, 250, 180],
  "mvNodeCol_PinHovered": [53, 150, 250, 255],
  "mvNodeCol_BoxSelector": [61, 133, 224, 30],
  "mvNodeCol_BoxSelectorOutline": [61, 133, 224, 150],
  "mvNodeCol_GridBackground": [40, 40, 50, 200],
  "mvNodeCol_GridLine": [200, 200, 200, 40]
}
