{
  "Author":"DearPyGui",
  "BasedOn":"https://github.com/hoffstadt/DearPyGui_Ext/blob/master/dearpygui_ext/themes.py",
  "mvThemeCol_Text": [0, 0, 0, 255],
  "mvThemeCol_TextDisabled": [153, 153, 153, 255],
  "mvThemeCol_WindowBg": [240, 240, 240, 255],
  "mvThemeCol_ChildBg": [0, 0, 0, 0],
  "mvThemeCol_PopupBg": [255, 255, 255, 250],
  "mvThemeCol_Border": [0, 0, 0, 77],
  "mvThemeCol_BorderShadow": [0, 0, 0, 0],
  "mvThemeCol_FrameBg": [255, 255, 255, 255],
  "mvThemeCol_FrameBgHovered": [66, 150, 250, 102],
  "mvThemeCol_FrameBgActive": [66, 150, 250, 171],
  "mvThemeCol_TitleBg": [245, 245, 245, 255],
  "mvThemeCol_TitleBgActive": [209, 209, 209, 255],
  "mvThemeCol_TitleBgCollapsed": [255, 255, 255, 130],
  "mvThemeCol_MenuBarBg": [219, 219, 219, 255],
  "mvThemeCol_ScrollbarBg": [250, 250, 250, 135],
  "mvThemeCol_ScrollbarGrab": [176, 176, 176, 204],
  "mvThemeCol_ScrollbarGrabHovered": [125, 125, 125, 204],
  "mvThemeCol_ScrollbarGrabActive": [125, 125, 125, 255],
  "mvThemeCol_CheckMark": [66, 150, 250, 255],
  "mvThemeCol_SliderGrab": [66, 150, 250, 200],
  "mvThemeCol_SliderGrabActive": [117, 138, 204, 153],
  "mvThemeCol_Button": [66, 150, 250, 102],
  "mvThemeCol_ButtonHovered": [66, 150, 250, 255],
  "mvThemeCol_ButtonActive": [15, 135, 250, 255],
  "mvThemeCol_Header": [66, 150, 250, 79],
  "mvThemeCol_HeaderHovered": [66, 150, 250, 204],
  "mvThemeCol_HeaderActive": [66, 150, 250, 255],
  "mvThemeCol_Separator": [100, 100, 100, 158],
  "mvThemeCol_SeparatorHovered": [36, 113, 204, 200],
  "mvThemeCol_SeparatorActive": [36, 113, 204, 255],
  "mvThemeCol_ResizeGrip": [89, 89, 89, 44],
  "mvThemeCol_ResizeGripHovered": [66, 150, 250, 171],
  "mvThemeCol_ResizeGripActive": [66, 150, 250, 242],
  "mvThemeCol_Tab": [194, 204, 216, 238],
  "mvThemeCol_TabHovered": [66, 150, 250, 204],
  "mvThemeCol_TabActive": [153, 185, 221, 255],
  "mvThemeCol_TabUnfocused": [234, 235, 236, 252],
  "mvThemeCol_TabUnfocusedActive": [190, 207, 220, 255],
  "mvThemeCol_DockingPreview": [66, 150, 250, 56],
  "mvThemeCol_DockingEmptyBg": [51, 51, 51, 255],
  "mvThemeCol_PlotLines": [100, 100, 100, 255],
  "mvThemeCol_PlotLinesHovered": [255, 110, 89, 255],
  "mvThemeCol_PlotHistogram": [229, 178, 0, 255],
  "mvThemeCol_PlotHistogramHovered": [255, 114, 0, 255],
  "mvThemeCol_TableHeaderBg": [200, 222, 250, 255],
  "mvThemeCol_TableBorderStrong": [145, 145, 164, 255],
  "mvThemeCol_TableBorderLight": [173, 173, 188, 255],
  "mvThemeCol_TableRowBg": [0, 0, 0, 0],
  "mvThemeCol_TableRowBgAlt": [77, 77, 77, 23],
  "mvThemeCol_TextSelectedBg": [66, 150, 250, 89],
  "mvThemeCol_DragDropTarget": [66, 150, 250, 242],
  "mvThemeCol_NavHighlight": [66, 150, 250, 204],
  "mvThemeCol_NavWindowingHighlight": [179, 179, 179, 179],
  "mvThemeCol_NavWindowingDimBg": [51, 51, 51, 51],
  "mvThemeCol_ModalWindowDimBg": [51, 51, 51, 89],
  "mvPlotCol_FrameBg": [255, 255, 255, 255],
  "mvPlotCol_PlotBg": [107, 146, 255, 34],
  "mvPlotCol_PlotBorder": [0, 0, 0, 0],
  "mvPlotCol_LegendBg": [255, 255, 255, 250],
  "mvPlotCol_LegendBorder": [209, 209, 209, 204],
  "mvPlotCol_LegendText": [0, 0, 0, 255],
  "mvPlotCol_TitleText": [0, 0, 0, 255],
  "mvPlotCol_InlayText": [0, 0, 0, 255],
  "mvPlotCol_XAxis": [0, 0, 0, 255],
  "mvPlotCol_XAxisGrid": [255, 255, 255, 255],
  "mvPlotCol_YAxis": [0, 0, 0, 255],
  "mvPlotCol_YAxisGrid": [255, 255, 255, 255],
  "mvPlotCol_YAxis2": [0, 0, 0, 255],
  "mvPlotCol_YAxisGrid2": [0, 0, 0, 127],
  "mvPlotCol_YAxis3": [0, 0, 0, 255],
  "mvPlotCol_YAxisGrid3": [0, 0, 0, 127],
  "mvPlotCol_Selection": [209, 163, 8, 255],
  "mvPlotCol_Query": [0, 215, 94, 255],
  "mvPlotCol_Crosshairs": [0, 0, 0, 127],
  "mvNodeCol_NodeBackground": [240, 240, 240, 255],
  "mvNodeCol_NodeBackgroundHovered": [240, 240, 240, 255],
  "mvNodeCol_NodeBackgroundSelected": [240, 240, 240, 255],
  "mvNodeCol_NodeOutline": [100, 100, 100, 255],
  "mvNodeCol_TitleBar": [248, 248, 248, 255],
  "mvNodeCol_TitleBarHovered": [209, 209, 209, 255],
  "mvNodeCol_TitleBarSelected": [209, 209, 209, 255],
  "mvNodeCol_Link": [66, 150, 250, 100],
  "mvNodeCol_LinkHovered": [66, 150, 250, 242],
  "mvNodeCol_LinkSelected": [66, 150, 250, 242],
  "mvNodeCol_Pin": [66, 150, 250, 160],
  "mvNodeCol_PinHovered": [66, 150, 250, 255],
  "mvNodeCol_BoxSelector": [90, 170, 250, 30],
  "mvNodeCol_BoxSelectorOutline": [90, 170, 250, 150],
  "mvNodeCol_GridBackground": [225, 225, 225, 255],
  "mvNodeCol_GridLine": [180, 180, 180, 100]
}
